{
  "fontName": "svg-font",
  "fontFormats": [
    "ttf",
    "eot",
    "woff",
    "woff2"
  ],
  "glyphs": [
    {
      "name": "alert",
      "codepoint": "E001"
    },
    {
      "name": "arrow-right",
      "codepoint": "E002"
    },
    {
      "name": "calendar",
      "codepoint": "E003"
    },
    {
      "name": "camera",
      "codepoint": "E004"
    },
    {
      "name": "cart",
      "codepoint": "E005"
    },
    {
      "name": "chat",
      "codepoint": "E006"
    },
    {
      "name": "checked",
      "codepoint": "E007"
    },
    {
      "name": "circle",
      "codepoint": "E008"
    },
    {
      "name": "clock",
      "codepoint": "E009"
    },
    {
      "name": "close",
      "codepoint": "E00A"
    },
    {
      "name": "conversation",
      "codepoint": "E00B"
    },
    {
      "name": "delete",
      "codepoint": "E00C"
    },
    {
      "name": "email",
      "codepoint": "E00D"
    },
    {
      "name": "fb",
      "codepoint": "E00E"
    },
    {
      "name": "gear",
      "codepoint": "E00F"
    },
    {
      "name": "gplus",
      "codepoint": "E010"
    },
    {
      "name": "heart",
      "codepoint": "E011"
    },
    {
      "name": "info",
      "codepoint": "E012"
    },
    {
      "name": "key",
      "codepoint": "E013"
    },
    {
      "name": "left",
      "codepoint": "E014"
    },
    {
      "name": "pencil",
      "codepoint": "E015"
    },
    {
      "name": "phone",
      "codepoint": "E016"
    },
    {
      "name": "pin",
      "codepoint": "E017"
    },
    {
      "name": "plus-btn",
      "codepoint": "E018"
    },
    {
      "name": "plus-circle",
      "codepoint": "E019"
    },
    {
      "name": "question-circle",
      "codepoint": "E01A"
    },
    {
      "name": "quote",
      "codepoint": "E01B"
    },
    {
      "name": "right",
      "codepoint": "E01C"
    },
    {
      "name": "search",
      "codepoint": "E01D"
    },
    {
      "name": "sharing",
      "codepoint": "E01E"
    },
    {
      "name": "skype",
      "codepoint": "E01F"
    },
    {
      "name": "stat",
      "codepoint": "E020"
    },
    {
      "name": "twitter",
      "codepoint": "E021"
    },
    {
      "name": "user",
      "codepoint": "E022"
    },
    {
      "name": "wrong",
      "codepoint": "E023"
    },
    {
      "name": "zoom",
      "codepoint": "E024"
    }
  ]
}